{
  "project_info": {
    "project_number": "185761613110",
    "firebase_url": "https://c-dev-minangku.firebaseio.com",
    "project_id": "c-dev-minangku",
    "storage_bucket": "c-dev-minangku.appspot.com"
  },
  "client": [
    {
      "client_info": {
        "mobilesdk_app_id": "1:185761613110:android:f121c404896473c9",
        "android_client_info": {
          "package_name": "com.cxteam.moneymanager"
        }
      },
      "oauth_client": [
        {
          "client_id": "185761613110-rue342hh9io7qcerdqpjbakocjfomvgt.apps.googleusercontent.com",
          "client_type": 3
        }
      ],
      "api_key": [
        {
          "current_key": "AIzaSyDXg4FNVHbyJnSXOW5OdQQLrLuLfe8W6mk"
        }
      ],
      "services": {
        "analytics_service": {
          "status": 1
        },
        "appinvite_service": {
          "status": 1,
          "other_platform_oauth_client": []
        },
        "ads_service": {
          "status": 2
        }
      }
    },
    {
      "client_info": {
        "mobilesdk_app_id": "1:185761613110:android:375360cac52442e4",
        "android_client_info": {
          "package_name": "cxteam.minangku"
        }
      },
      "oauth_client": [
        {
          "client_id": "185761613110-ke6m69pg5lgoh3reappgmtkuegpmg8im.apps.googleusercontent.com",
          "client_type": 1,
          "android_info": {
            "package_name": "cxteam.minangku",
            "certificate_hash": "071a636284c1340900456be77cfa8588a0d53310"
          }
        },
        {
          "client_id": "185761613110-relbf1eh19e7elpvt8s3s53uup3rihil.apps.googleusercontent.com",
          "client_type": 1,
          "android_info": {
            "package_name": "cxteam.minangku",
            "certificate_hash": "308a9b8e6d03838106baa47cf14aa63ae29aec73"
          }
        },
        {
          "client_id": "185761613110-v3t673svr7h9dt6bictjtap2im8f1fh7.apps.googleusercontent.com",
          "client_type": 1,
          "android_info": {
            "package_name": "cxteam.minangku",
            "certificate_hash": "253ac702a3be3be5be4354a3a06247eed841508f"
          }
        },
        {
          "client_id": "185761613110-rue342hh9io7qcerdqpjbakocjfomvgt.apps.googleusercontent.com",
          "client_type": 3
        }
      ],
      "api_key": [
        {
          "current_key": "AIzaSyDXg4FNVHbyJnSXOW5OdQQLrLuLfe8W6mk"
        }
      ],
      "services": {
        "analytics_service": {
          "status": 1
        },
        "appinvite_service": {
          "status": 2,
          "other_platform_oauth_client": [
            {
              "client_id": "185761613110-rue342hh9io7qcerdqpjbakocjfomvgt.apps.googleusercontent.com",
              "client_type": 3
            }
          ]
        },
        "ads_service": {
          "status": 2
        }
      },
      "admob_app_id": "ca-app-pub-4160922725758128~8938820947"
    }
  ],
  "configuration_version": "1"
}